	/*for (;;) {

		wcout << "Trois options s'offrent presentement a vous, veuillez faire un choix maintenant" << endl;
		wcout << "1: Acceder au menu de la section du programme Livraison par drones" << endl;
		wcout << "2: Acceder au menu de la section du programme Desserts" << endl;
		wcout << "3: Quitter le programme" << endl;

		int reponse;
		cin >> reponse;
		while (reponse != 3) {
			switch (reponse) {
				char menu1; 
			case 1: 
				cout << "a) Mettre a jour la carte" << endl;
				cout << "b) Determiner le plus court chemin" << endl;
				cout << "c) Quitter" << endl;
				break; 
			case 2: 
				cout << "a) Creer et afficher le graphe des recettes" << endl;
				cout << "b) Generer et afficher le diagramme de Hasse" << endl;
				cout << "c) Quitter" << endl;
				break; 
		}

	}*/