﻿  Main.cpp
  TP2Log2810.vcxproj -> C:\Users\Jonathan\Documents\Visual Studio 2015\Projects\TP2Log2810\Debug\TP2Log2810.exe
  TP2Log2810.vcxproj -> C:\Users\Jonathan\Documents\Visual Studio 2015\Projects\TP2Log2810\Debug\TP2Log2810.pdb (Full PDB)
